Social Statistics II (Exercises) - Solutions 3
…
# A tibble: 4 × 3
  variable    sd  mean
  <chr>    <dbl> <dbl>
1 y        6.75   4.98
2 t        0.500  0.52
3 x        1.02   1.00
4 s        1.01   1.02

Note. Ignore the “Standard Error” and “Power” messages.

Code

d

# A tibble: 1,000 × 6
       y0     y1     t      y       x      s
 *  <dbl>  <dbl> <int>  <dbl>   <dbl>  <dbl>
 1  3.03   5.03      1  5.03   1.90   1.84  
 2  5.20   7.20      1  7.20   0.545  0.699 
 3 -0.351  1.65      1  1.65  -0.355  0.729 
 4 -2.76  -0.764     1 -0.764  1.03   1.44  
 5 -3.79  -1.79      0 -3.79   0.0507 0.335 
 6 12.9   14.9       0 12.9    2.57   1.71  
 7  6.70   8.70      0  6.70   1.63   1.56  
 8  3.68   5.68      0  3.68   1.40   0.694 
 9 -1.65   0.353     1  0.353  0.307  0.0589
10 10.8   12.8       0 10.8    1.77   2.14  
# ℹ 990 more rows
…
