Social Statistics II (Exercises) - 21 Solutions 10
…
Note that panelr has made the missing values explicit, which is something you may want (or not).

Once you gap_long_panelr you’ll notice that this object has an extra class called “panel_data.” The widen_panel() function understands this and can make the change to “wide” effortlessly.

Code

widen_panel(gap_long_panelr)

# A tibble: 142 × 170
   country     continent lifeExp_1952 gdpPercap_1952 pop_1952 lifeExp_1953
   <fct>       <fct>            <dbl>          <dbl>    <int>        <dbl>
 1 Afghanistan Asia              28.8           779.  8425333           NA
 2 Albania     Europe            55.2          1601.  1282697           NA
 3 Algeria     Africa            43.1          2449.  9279525           NA
 4 Angola      Africa            30.0          3521.  4232095           NA
 5 Argentina   Americas          62.5          5911. 17876956           NA
 6 Australia   Oceania           69.1         10040.  8691212           NA
 7 Austria     Europe            66.8          6137.  6927772           NA
 8 Bahrain     Asia              50.9          9867.   120447           NA
 9 Bangladesh  Asia              37.5           684. 46886859           NA
10 Belgium     Europe            68            8343.  8730405           NA
# ℹ 132 more rows
# ℹ 164 more variables: gdpPercap_1953 <dbl>, pop_1953 <int>,
#   lifeExp_1954 <dbl>, gdpPercap_1954 <dbl>, pop_1954 <int>,
#   lifeExp_1955 <dbl>, gdpPercap_1955 <dbl>, pop_1955 <int>,
#   lifeExp_1956 <dbl>, gdpPercap_1956 <dbl>, pop_1956 <int>,
#   lifeExp_1957 <dbl>, gdpPercap_1957 <dbl>, pop_1957 <int>,
#   lifeExp_1958 <dbl>, gdpPercap_1958 <dbl>, pop_1958 <int>, …

Note that there’s a lot of columns with missing values. You’ll have to drop them first with drop_na() if you don’t want them.

Code

gap_long_panelr |> 
  tidyr::drop_na() |> 
  widen_panel()

# A tibble: 142 × 38
   country     continent lifeExp_1952 gdpPercap_1952 pop_1952 lifeExp_1957
   <fct>       <fct>            <dbl>          <dbl>    <int>        <dbl>
 1 Afghanistan Asia              28.8           779.  8425333         30.3
 2 Albania     Europe            55.2          1601.  1282697         59.3
 3 Algeria     Africa            43.1          2449.  9279525         45.7
 4 Angola      Africa            30.0          3521.  4232095         32.0
 5 Argentina   Americas          62.5          5911. 17876956         64.4
 6 Australia   Oceania           69.1         10040.  8691212         70.3
 7 Austria     Europe            66.8          6137.  6927772         67.5
 8 Bahrain     Asia              50.9          9867.   120447         53.8
 9 Bangladesh  Asia              37.5           684. 46886859         39.3
10 Belgium     Europe            68            8343.  8730405         69.2
# ℹ 132 more rows
# ℹ 32 more variables: gdpPercap_1957 <dbl>, pop_1957 <int>,
#   lifeExp_1962 <dbl>, gdpPercap_1962 <dbl>, pop_1962 <int>,
#   lifeExp_1967 <dbl>, gdpPercap_1967 <dbl>, pop_1967 <int>,
#   lifeExp_1972 <dbl>, gdpPercap_1972 <dbl>, pop_1972 <int>,
#   lifeExp_1977 <dbl>, gdpPercap_1977 <dbl>, pop_1977 <int>,
#   lifeExp_1982 <dbl>, gdpPercap_1982 <dbl>, pop_1982 <int>, …
…
