Social Statistics II (Exercises) - 10 Week 10
…
The following chunk of code uses the pivot_wider() function to turn this dataset into wider form.

Code

gap_wide <- gapminder::gapminder |> 
  select(continent, country, year, lifeExp, gdpPercap) |> 
  pivot_wider(
    names_from = year, 
    values_from = c(lifeExp, gdpPercap), 
    names_sep = ""
  )

gap_wide

# A tibble: 142 × 26
   continent country lifeExp1952 lifeExp1957 lifeExp1962 lifeExp1967 lifeExp1972
   <fct>     <fct>         <dbl>       <dbl>       <dbl>       <dbl>       <dbl>
 1 Asia      Afghan…        28.8        30.3        32.0        34.0        36.1
 2 Europe    Albania        55.2        59.3        64.8        66.2        67.7
 3 Africa    Algeria        43.1        45.7        48.3        51.4        54.5
 4 Africa    Angola         30.0        32.0        34          36.0        37.9
 5 Americas  Argent…        62.5        64.4        65.1        65.6        67.1
 6 Oceania   Austra…        69.1        70.3        70.9        71.1        71.9
 7 Europe    Austria        66.8        67.5        69.5        70.1        70.6
 8 Asia      Bahrain        50.9        53.8        56.9        59.9        63.3
 9 Asia      Bangla…        37.5        39.3        41.2        43.5        45.3
10 Europe    Belgium        68          69.2        70.2        70.9        71.4
# ℹ 132 more rows
# ℹ 19 more variables: lifeExp1977 <dbl>, lifeExp1982 <dbl>, lifeExp1987 <dbl>,
#   lifeExp1992 <dbl>, lifeExp1997 <dbl>, lifeExp2002 <dbl>, lifeExp2007 <dbl>,
#   gdpPercap1952 <dbl>, gdpPercap1957 <dbl>, gdpPercap1962 <dbl>,
#   gdpPercap1967 <dbl>, gdpPercap1972 <dbl>, gdpPercap1977 <dbl>,
#   gdpPercap1982 <dbl>, gdpPercap1987 <dbl>, gdpPercap1992 <dbl>,
#   gdpPercap1997 <dbl>, gdpPercap2002 <dbl>, gdpPercap2007 <dbl>
…
